^C:\USERS\MARC.GUILLEN\DESKTOP\ENGINE\ENGINE2D\ENGINE2D\DEBUG\2DMAIN.OBJ|C:\USERS\MARC.GUILLEN\DESKTOP\ENGINE\ENGINE2D\ENGINE2D\DEBUG\ALIVE.OBJ|C:\USERS\MARC.GUILLEN\DESKTOP\ENGINE\ENGINE2D\ENGINE2D\DEBUG\AUDIO.OBJ|C:\USERS\MARC.GUILLEN\DESKTOP\ENGINE\ENGINE2D\ENGINE2D\DEBUG\AUDIOMANAGER.OBJ|C:\USERS\MARC.GUILLEN\DESKTOP\ENGINE\ENGINE2D\ENGINE2D\DEBUG\BACKGROUND.OBJ|C:\USERS\MARC.GUILLEN\DESKTOP\ENGINE\ENGINE2D\ENGINE2D\DEBUG\BUTTON.OBJ|C:\USERS\MARC.GUILLEN\DESKTOP\ENGINE\ENGINE2D\ENGINE2D\DEBUG\CAMERA.OBJ|C:\USERS\MARC.GUILLEN\DESKTOP\ENGINE\ENGINE2D\ENGINE2D\DEBUG\CHARACTER.OBJ|C:\USERS\MARC.GUILLEN\DESKTOP\ENGINE\ENGINE2D\ENGINE2D\DEBUG\ENTITY.OBJ|C:\USERS\MARC.GUILLEN\DESKTOP\ENGINE\ENGINE2D\ENGINE2D\DEBUG\RESOURCEMANAGER.OBJ|C:\USERS\MARC.GUILLEN\DESKTOP\ENGINE\ENGINE2D\ENGINE2D\DEBUG\SCENE.OBJ|C:\USERS\MARC.GUILLEN\DESKTOP\ENGINE\ENGINE2D\ENGINE2D\DEBUG\SCENEGAMEOVER.OBJ|C:\USERS\MARC.GUILLEN\DESKTOP\ENGINE\ENGINE2D\ENGINE2D\DEBUG\SCENELEVEL.OBJ|C:\USERS\MARC.GUILLEN\DESKTOP\ENGINE\ENGINE2D\ENGINE2D\DEBUG\SCENEMANAGER.OBJ|C:\USERS\MARC.GUILLEN\DESKTOP\ENGINE\ENGINE2D\ENGINE2D\DEBUG\SCENEMENU.OBJ|C:\USERS\MARC.GUILLEN\DESKTOP\ENGINE\ENGINE2D\ENGINE2D\DEBUG\SDL_FONTCACHE.OBJ|C:\USERS\MARC.GUILLEN\DESKTOP\ENGINE\ENGINE2D\ENGINE2D\DEBUG\SINGLETONS.OBJ|C:\USERS\MARC.GUILLEN\DESKTOP\ENGINE\ENGINE2D\ENGINE2D\DEBUG\TEXT.OBJ|C:\USERS\MARC.GUILLEN\DESKTOP\ENGINE\ENGINE2D\ENGINE2D\DEBUG\TIMER.OBJ|C:\USERS\MARC.GUILLEN\DESKTOP\ENGINE\ENGINE2D\ENGINE2D\DEBUG\UTILS.OBJ|C:\USERS\MARC.GUILLEN\DESKTOP\ENGINE\ENGINE2D\ENGINE2D\DEBUG\VIDEO.OBJ|C:\USERS\MARC.GUILLEN\DESKTOP\ENGINE\ENGINE2D\ENGINE2D\DEBUG\WALL.OBJ|C:\USERS\MARC.GUILLEN\DESKTOP\ENGINE\ENGINE2D\ENGINE2D\DEBUG\WIDGETS.OBJ|C:\USERS\MARC.GUILLEN\DESKTOP\ENGINE\ENGINE2D\ENGINE2D\DEBUG\WORLD.OBJ
C:\USERS\MARC.GUILLEN\DESKTOP\ENGINE\ENGINE2D\LIBS\SDL2-2.0.1\LIB\X86\SDL2.LIB
C:\USERS\MARC.GUILLEN\DESKTOP\ENGINE\ENGINE2D\LIBS\SDL2-2.0.1\LIB\X86\SDL2MAIN.LIB
C:\USERS\MARC.GUILLEN\DESKTOP\ENGINE\ENGINE2D\LIBS\SDL2-2.0.1\LIB\X86\SDL2_IMAGE.LIB
C:\USERS\MARC.GUILLEN\DESKTOP\ENGINE\ENGINE2D\LIBS\SDL2-2.0.1\LIB\X86\SDL2_MIXER.LIB
C:\USERS\MARC.GUILLEN\DESKTOP\ENGINE\ENGINE2D\LIBS\SDL2-2.0.1\LIB\X86\BASS.LIB
C:\USERS\MARC.GUILLEN\DESKTOP\ENGINE\ENGINE2D\LIBS\SDL2-2.0.1\LIB\X86\SDL2_TTF.LIB
C:\USERS\MARC.GUILLEN\DESKTOP\ENGINE\ENGINE2D\ENGINE2D\DEBUG\2DMAIN.OBJ
C:\USERS\MARC.GUILLEN\DESKTOP\ENGINE\ENGINE2D\ENGINE2D\DEBUG\ALIVE.OBJ
C:\USERS\MARC.GUILLEN\DESKTOP\ENGINE\ENGINE2D\ENGINE2D\DEBUG\AUDIO.OBJ
C:\USERS\MARC.GUILLEN\DESKTOP\ENGINE\ENGINE2D\ENGINE2D\DEBUG\BACKGROUND.OBJ
C:\USERS\MARC.GUILLEN\DESKTOP\ENGINE\ENGINE2D\ENGINE2D\DEBUG\BUTTON.OBJ
C:\USERS\MARC.GUILLEN\DESKTOP\ENGINE\ENGINE2D\ENGINE2D\DEBUG\CAMERA.OBJ
C:\USERS\MARC.GUILLEN\DESKTOP\ENGINE\ENGINE2D\ENGINE2D\DEBUG\CHARACTER.OBJ
C:\USERS\MARC.GUILLEN\DESKTOP\ENGINE\ENGINE2D\ENGINE2D\DEBUG\ENTITY.OBJ
C:\USERS\MARC.GUILLEN\DESKTOP\ENGINE\ENGINE2D\ENGINE2D\DEBUG\RESOURCEMANAGER.OBJ
C:\USERS\MARC.GUILLEN\DESKTOP\ENGINE\ENGINE2D\ENGINE2D\DEBUG\AUDIOMANAGER.OBJ
C:\USERS\MARC.GUILLEN\DESKTOP\ENGINE\ENGINE2D\ENGINE2D\DEBUG\SCENE.OBJ
C:\USERS\MARC.GUILLEN\DESKTOP\ENGINE\ENGINE2D\ENGINE2D\DEBUG\SCENEGAMEOVER.OBJ
C:\USERS\MARC.GUILLEN\DESKTOP\ENGINE\ENGINE2D\ENGINE2D\DEBUG\SCENELEVEL.OBJ
C:\USERS\MARC.GUILLEN\DESKTOP\ENGINE\ENGINE2D\ENGINE2D\DEBUG\SCENEMANAGER.OBJ
C:\USERS\MARC.GUILLEN\DESKTOP\ENGINE\ENGINE2D\ENGINE2D\DEBUG\SCENEMENU.OBJ
C:\USERS\MARC.GUILLEN\DESKTOP\ENGINE\ENGINE2D\ENGINE2D\DEBUG\SDL_FONTCACHE.OBJ
C:\USERS\MARC.GUILLEN\DESKTOP\ENGINE\ENGINE2D\ENGINE2D\DEBUG\SINGLETONS.OBJ
C:\USERS\MARC.GUILLEN\DESKTOP\ENGINE\ENGINE2D\ENGINE2D\DEBUG\TEXT.OBJ
C:\USERS\MARC.GUILLEN\DESKTOP\ENGINE\ENGINE2D\ENGINE2D\DEBUG\TIMER.OBJ
C:\USERS\MARC.GUILLEN\DESKTOP\ENGINE\ENGINE2D\ENGINE2D\DEBUG\UTILS.OBJ
C:\USERS\MARC.GUILLEN\DESKTOP\ENGINE\ENGINE2D\ENGINE2D\DEBUG\VIDEO.OBJ
C:\USERS\MARC.GUILLEN\DESKTOP\ENGINE\ENGINE2D\ENGINE2D\DEBUG\WALL.OBJ
C:\USERS\MARC.GUILLEN\DESKTOP\ENGINE\ENGINE2D\ENGINE2D\DEBUG\WIDGETS.OBJ
C:\USERS\MARC.GUILLEN\DESKTOP\ENGINE\ENGINE2D\ENGINE2D\DEBUG\WORLD.OBJ
C:\WINDOWS\SYSTEM32\TZRES.DLL
C:\WINDOWS\GLOBALIZATION\SORTING\SORTDEFAULT.NLS
C:\PROGRAM FILES (X86)\MICROSOFT VISUAL STUDIO 12.0\VC\LIB\MSVCPRTD.LIB
C:\PROGRAM FILES (X86)\WINDOWS KITS\8.1\LIB\WINV6.3\UM\X86\UUID.LIB
C:\PROGRAM FILES (X86)\MICROSOFT VISUAL STUDIO 12.0\VC\LIB\MSVCRTD.LIB
C:\PROGRAM FILES (X86)\MICROSOFT VISUAL STUDIO 12.0\VC\LIB\OLDNAMES.LIB
C:\PROGRAM FILES (X86)\WINDOWS KITS\8.1\LIB\WINV6.3\UM\X86\KERNEL32.LIB
